{
  "files": {
    "static/js/0.41e53084.chunk.js": "/static/js/0.41e53084.chunk.js",
    "static/js/1.19f97485.chunk.js": "/static/js/1.19f97485.chunk.js",
    "static/js/2.eb11d925.chunk.js": "/static/js/2.eb11d925.chunk.js",
    "static/js/3.82d0544e.chunk.js": "/static/js/3.82d0544e.chunk.js",
    "static/js/4.8d12bc94.chunk.js": "/static/js/4.8d12bc94.chunk.js",
    "static/js/5.ef4ff8f3.chunk.js": "/static/js/5.ef4ff8f3.chunk.js",
    "static/js/6.a9737c65.chunk.js": "/static/js/6.a9737c65.chunk.js",
    "static/js/7.e40b510d.chunk.js": "/static/js/7.e40b510d.chunk.js",
    "static/js/8.9810f0cc.chunk.js": "/static/js/8.9810f0cc.chunk.js",
    "static/js/9.174dedee.chunk.js": "/static/js/9.174dedee.chunk.js",
    "static/js/10.d1714ae9.chunk.js": "/static/js/10.d1714ae9.chunk.js",
    "static/js/11.63d644c2.chunk.js": "/static/js/11.63d644c2.chunk.js",
    "static/js/12.9fed0cb3.chunk.js": "/static/js/12.9fed0cb3.chunk.js",
    "static/js/13.67fafb3d.chunk.js": "/static/js/13.67fafb3d.chunk.js",
    "static/js/14.d3beec4d.chunk.js": "/static/js/14.d3beec4d.chunk.js",
    "static/js/15.94924e0b.chunk.js": "/static/js/15.94924e0b.chunk.js",
    "static/js/16.e60133a8.chunk.js": "/static/js/16.e60133a8.chunk.js",
    "static/js/17.b3832ca4.chunk.js": "/static/js/17.b3832ca4.chunk.js",
    "static/js/18.1e76c5b6.chunk.js": "/static/js/18.1e76c5b6.chunk.js",
    "static/js/19.84c8a6d1.chunk.js": "/static/js/19.84c8a6d1.chunk.js",
    "static/js/20.0423f71e.chunk.js": "/static/js/20.0423f71e.chunk.js",
    "static/js/21.e354bbfa.chunk.js": "/static/js/21.e354bbfa.chunk.js",
    "static/js/22.08fb0681.chunk.js": "/static/js/22.08fb0681.chunk.js",
    "static/js/23.287907da.chunk.js": "/static/js/23.287907da.chunk.js",
    "static/js/24.5bf1a7d4.chunk.js": "/static/js/24.5bf1a7d4.chunk.js",
    "static/js/25.52a17e02.chunk.js": "/static/js/25.52a17e02.chunk.js",
    "static/js/26.1f9e7078.chunk.js": "/static/js/26.1f9e7078.chunk.js",
    "static/js/27.de287be7.chunk.js": "/static/js/27.de287be7.chunk.js",
    "static/js/28.91ec23db.chunk.js": "/static/js/28.91ec23db.chunk.js",
    "static/js/29.7265ede1.chunk.js": "/static/js/29.7265ede1.chunk.js",
    "static/js/30.281183e4.chunk.js": "/static/js/30.281183e4.chunk.js",
    "static/js/31.1b59146c.chunk.js": "/static/js/31.1b59146c.chunk.js",
    "static/js/32.846bc659.chunk.js": "/static/js/32.846bc659.chunk.js",
    "static/js/33.440b7f7e.chunk.js": "/static/js/33.440b7f7e.chunk.js",
    "static/js/34.1abc181a.chunk.js": "/static/js/34.1abc181a.chunk.js",
    "static/js/35.0f5ee8b8.chunk.js": "/static/js/35.0f5ee8b8.chunk.js",
    "static/js/36.8c46f602.chunk.js": "/static/js/36.8c46f602.chunk.js",
    "static/js/37.73b2512d.chunk.js": "/static/js/37.73b2512d.chunk.js",
    "static/js/38.fbc11069.chunk.js": "/static/js/38.fbc11069.chunk.js",
    "main.css": "/static/css/main.d48d87b7.chunk.css",
    "main.js": "/static/js/main.3a1f18e8.chunk.js",
    "runtime-main.js": "/static/js/runtime-main.16f4227a.js",
    "static/js/41.607d4a6e.chunk.js": "/static/js/41.607d4a6e.chunk.js",
    "static/js/42.52ef3819.chunk.js": "/static/js/42.52ef3819.chunk.js",
    "static/js/43.e90652de.chunk.js": "/static/js/43.e90652de.chunk.js",
    "static/js/44.cf016d19.chunk.js": "/static/js/44.cf016d19.chunk.js",
    "static/css/45.0908fe6f.chunk.css": "/static/css/45.0908fe6f.chunk.css",
    "static/js/45.dc8e610c.chunk.js": "/static/js/45.dc8e610c.chunk.js",
    "static/css/46.0908fe6f.chunk.css": "/static/css/46.0908fe6f.chunk.css",
    "static/js/46.0b428032.chunk.js": "/static/js/46.0b428032.chunk.js",
    "static/css/47.0908fe6f.chunk.css": "/static/css/47.0908fe6f.chunk.css",
    "static/js/47.cbcfd4f5.chunk.js": "/static/js/47.cbcfd4f5.chunk.js",
    "static/css/48.0908fe6f.chunk.css": "/static/css/48.0908fe6f.chunk.css",
    "static/js/48.7355dda9.chunk.js": "/static/js/48.7355dda9.chunk.js",
    "static/css/49.0908fe6f.chunk.css": "/static/css/49.0908fe6f.chunk.css",
    "static/js/49.527a9437.chunk.js": "/static/js/49.527a9437.chunk.js",
    "static/js/50.833ae588.chunk.js": "/static/js/50.833ae588.chunk.js",
    "static/css/51.0908fe6f.chunk.css": "/static/css/51.0908fe6f.chunk.css",
    "static/js/51.b17bc42b.chunk.js": "/static/js/51.b17bc42b.chunk.js",
    "static/css/52.0908fe6f.chunk.css": "/static/css/52.0908fe6f.chunk.css",
    "static/js/52.d8d69b9a.chunk.js": "/static/js/52.d8d69b9a.chunk.js",
    "static/js/53.d8071e6c.chunk.js": "/static/js/53.d8071e6c.chunk.js",
    "static/js/54.f059ec90.chunk.js": "/static/js/54.f059ec90.chunk.js",
    "static/js/55.a6857ad8.chunk.js": "/static/js/55.a6857ad8.chunk.js",
    "static/js/56.d6c4f932.chunk.js": "/static/js/56.d6c4f932.chunk.js",
    "static/js/57.72214dd2.chunk.js": "/static/js/57.72214dd2.chunk.js",
    "static/js/58.9ce599af.chunk.js": "/static/js/58.9ce599af.chunk.js",
    "static/js/59.addd4e96.chunk.js": "/static/js/59.addd4e96.chunk.js",
    "static/js/60.c1e59c9d.chunk.js": "/static/js/60.c1e59c9d.chunk.js",
    "static/js/61.990e68cc.chunk.js": "/static/js/61.990e68cc.chunk.js",
    "static/js/62.a1566e94.chunk.js": "/static/js/62.a1566e94.chunk.js",
    "static/js/63.faadd637.chunk.js": "/static/js/63.faadd637.chunk.js",
    "static/js/64.8bf64cb9.chunk.js": "/static/js/64.8bf64cb9.chunk.js",
    "static/js/65.2f9d7dd3.chunk.js": "/static/js/65.2f9d7dd3.chunk.js",
    "static/js/66.2f979a02.chunk.js": "/static/js/66.2f979a02.chunk.js",
    "static/js/67.63d42ed8.chunk.js": "/static/js/67.63d42ed8.chunk.js",
    "static/js/68.75a9deb9.chunk.js": "/static/js/68.75a9deb9.chunk.js",
    "static/js/69.fd65c4cd.chunk.js": "/static/js/69.fd65c4cd.chunk.js",
    "static/js/70.aea42ffb.chunk.js": "/static/js/70.aea42ffb.chunk.js",
    "static/js/71.7643272c.chunk.js": "/static/js/71.7643272c.chunk.js",
    "static/js/72.66baf1b2.chunk.js": "/static/js/72.66baf1b2.chunk.js",
    "static/js/73.31f959d9.chunk.js": "/static/js/73.31f959d9.chunk.js",
    "static/js/74.92823da5.chunk.js": "/static/js/74.92823da5.chunk.js",
    "static/js/75.c04f1764.chunk.js": "/static/js/75.c04f1764.chunk.js",
    "static/js/76.9cb2c41a.chunk.js": "/static/js/76.9cb2c41a.chunk.js",
    "static/js/77.e53d8ffd.chunk.js": "/static/js/77.e53d8ffd.chunk.js",
    "static/js/78.52ea7787.chunk.js": "/static/js/78.52ea7787.chunk.js",
    "static/js/79.381bbee0.chunk.js": "/static/js/79.381bbee0.chunk.js",
    "static/js/80.2ab8297c.chunk.js": "/static/js/80.2ab8297c.chunk.js",
    "static/js/81.8a6e1969.chunk.js": "/static/js/81.8a6e1969.chunk.js",
    "static/js/82.960046c4.chunk.js": "/static/js/82.960046c4.chunk.js",
    "static/js/83.0e90be4e.chunk.js": "/static/js/83.0e90be4e.chunk.js",
    "static/js/84.9daf21d2.chunk.js": "/static/js/84.9daf21d2.chunk.js",
    "static/js/85.3b1a81ee.chunk.js": "/static/js/85.3b1a81ee.chunk.js",
    "static/js/86.bf5a3a43.chunk.js": "/static/js/86.bf5a3a43.chunk.js",
    "static/js/87.a9b163e0.chunk.js": "/static/js/87.a9b163e0.chunk.js",
    "static/js/88.e0aa5787.chunk.js": "/static/js/88.e0aa5787.chunk.js",
    "static/js/89.c2144b6a.chunk.js": "/static/js/89.c2144b6a.chunk.js",
    "static/js/90.5ffd30fd.chunk.js": "/static/js/90.5ffd30fd.chunk.js",
    "static/js/91.914b19a8.chunk.js": "/static/js/91.914b19a8.chunk.js",
    "static/js/92.17b54463.chunk.js": "/static/js/92.17b54463.chunk.js",
    "static/js/93.c16ae14d.chunk.js": "/static/js/93.c16ae14d.chunk.js",
    "static/js/94.9cd11551.chunk.js": "/static/js/94.9cd11551.chunk.js",
    "static/js/95.499a7f79.chunk.js": "/static/js/95.499a7f79.chunk.js",
    "static/js/96.96b69d3a.chunk.js": "/static/js/96.96b69d3a.chunk.js",
    "static/js/97.729a32f6.chunk.js": "/static/js/97.729a32f6.chunk.js",
    "static/js/98.6abeab36.chunk.js": "/static/js/98.6abeab36.chunk.js",
    "static/js/99.b76462ed.chunk.js": "/static/js/99.b76462ed.chunk.js",
    "static/js/100.fe82fa03.chunk.js": "/static/js/100.fe82fa03.chunk.js",
    "static/js/101.86c044bc.chunk.js": "/static/js/101.86c044bc.chunk.js",
    "static/js/102.f0dc963b.chunk.js": "/static/js/102.f0dc963b.chunk.js",
    "static/js/103.61a3ba95.chunk.js": "/static/js/103.61a3ba95.chunk.js",
    "static/js/104.178d5542.chunk.js": "/static/js/104.178d5542.chunk.js",
    "static/js/105.2ec6d3ed.chunk.js": "/static/js/105.2ec6d3ed.chunk.js",
    "static/js/106.84ed7194.chunk.js": "/static/js/106.84ed7194.chunk.js",
    "static/js/107.9102a5fc.chunk.js": "/static/js/107.9102a5fc.chunk.js",
    "static/js/108.b41a897c.chunk.js": "/static/js/108.b41a897c.chunk.js",
    "static/js/109.2bcfcf3a.chunk.js": "/static/js/109.2bcfcf3a.chunk.js",
    "static/js/110.122ce9c8.chunk.js": "/static/js/110.122ce9c8.chunk.js",
    "static/js/111.4b363bae.chunk.js": "/static/js/111.4b363bae.chunk.js",
    "static/js/112.d86ac704.chunk.js": "/static/js/112.d86ac704.chunk.js",
    "static/js/113.930bcd9d.chunk.js": "/static/js/113.930bcd9d.chunk.js",
    "static/js/114.a44b2f4c.chunk.js": "/static/js/114.a44b2f4c.chunk.js",
    "static/js/115.bc11c020.chunk.js": "/static/js/115.bc11c020.chunk.js",
    "static/js/116.04e71433.chunk.js": "/static/js/116.04e71433.chunk.js",
    "static/js/117.36b7e27e.chunk.js": "/static/js/117.36b7e27e.chunk.js",
    "static/js/118.19831cb3.chunk.js": "/static/js/118.19831cb3.chunk.js",
    "static/js/119.76cd2052.chunk.js": "/static/js/119.76cd2052.chunk.js",
    "static/js/120.cba3a7be.chunk.js": "/static/js/120.cba3a7be.chunk.js",
    "static/js/121.f2a5fb8f.chunk.js": "/static/js/121.f2a5fb8f.chunk.js",
    "static/js/122.55a7bf2b.chunk.js": "/static/js/122.55a7bf2b.chunk.js",
    "static/js/123.e4f3f6ad.chunk.js": "/static/js/123.e4f3f6ad.chunk.js",
    "static/js/124.c6121caa.chunk.js": "/static/js/124.c6121caa.chunk.js",
    "static/js/125.7558f222.chunk.js": "/static/js/125.7558f222.chunk.js",
    "static/js/126.774a39ee.chunk.js": "/static/js/126.774a39ee.chunk.js",
    "static/js/127.5405f5c1.chunk.js": "/static/js/127.5405f5c1.chunk.js",
    "static/js/128.8c145888.chunk.js": "/static/js/128.8c145888.chunk.js",
    "static/js/129.0c64d381.chunk.js": "/static/js/129.0c64d381.chunk.js",
    "static/js/130.b070f9eb.chunk.js": "/static/js/130.b070f9eb.chunk.js",
    "static/js/131.fe5d9409.chunk.js": "/static/js/131.fe5d9409.chunk.js",
    "static/js/132.466ff48a.chunk.js": "/static/js/132.466ff48a.chunk.js",
    "static/js/133.4f10ed2c.chunk.js": "/static/js/133.4f10ed2c.chunk.js",
    "static/js/134.8b056144.chunk.js": "/static/js/134.8b056144.chunk.js",
    "static/js/135.0409f423.chunk.js": "/static/js/135.0409f423.chunk.js",
    "static/js/136.24af21fb.chunk.js": "/static/js/136.24af21fb.chunk.js",
    "static/js/137.af6c6854.chunk.js": "/static/js/137.af6c6854.chunk.js",
    "static/js/138.558bb118.chunk.js": "/static/js/138.558bb118.chunk.js",
    "static/js/139.b5617c17.chunk.js": "/static/js/139.b5617c17.chunk.js",
    "static/js/140.e33c06de.chunk.js": "/static/js/140.e33c06de.chunk.js",
    "static/js/141.dec55833.chunk.js": "/static/js/141.dec55833.chunk.js",
    "static/js/142.30f62bc7.chunk.js": "/static/js/142.30f62bc7.chunk.js",
    "static/js/143.8b2dd50b.chunk.js": "/static/js/143.8b2dd50b.chunk.js",
    "static/js/144.85e442d8.chunk.js": "/static/js/144.85e442d8.chunk.js",
    "static/js/145.1e090e45.chunk.js": "/static/js/145.1e090e45.chunk.js",
    "static/js/146.8feca197.chunk.js": "/static/js/146.8feca197.chunk.js",
    "static/js/147.89e43265.chunk.js": "/static/js/147.89e43265.chunk.js",
    "static/js/148.b183512b.chunk.js": "/static/js/148.b183512b.chunk.js",
    "static/js/149.d3362011.chunk.js": "/static/js/149.d3362011.chunk.js",
    "static/js/150.eed27c49.chunk.js": "/static/js/150.eed27c49.chunk.js",
    "static/js/151.96a3b850.chunk.js": "/static/js/151.96a3b850.chunk.js",
    "static/js/152.abaea347.chunk.js": "/static/js/152.abaea347.chunk.js",
    "static/js/153.3bea5b74.chunk.js": "/static/js/153.3bea5b74.chunk.js",
    "static/js/154.04e0c0c4.chunk.js": "/static/js/154.04e0c0c4.chunk.js",
    "static/js/155.6b2517d7.chunk.js": "/static/js/155.6b2517d7.chunk.js",
    "static/js/156.d854d9bb.chunk.js": "/static/js/156.d854d9bb.chunk.js",
    "static/js/157.763603cc.chunk.js": "/static/js/157.763603cc.chunk.js",
    "static/js/158.d7276ef3.chunk.js": "/static/js/158.d7276ef3.chunk.js",
    "static/js/159.5f50dcc2.chunk.js": "/static/js/159.5f50dcc2.chunk.js",
    "static/js/160.2cb7b212.chunk.js": "/static/js/160.2cb7b212.chunk.js",
    "static/js/161.fb17dfda.chunk.js": "/static/js/161.fb17dfda.chunk.js",
    "static/js/162.8f62786d.chunk.js": "/static/js/162.8f62786d.chunk.js",
    "static/js/163.1df7407a.chunk.js": "/static/js/163.1df7407a.chunk.js",
    "static/js/164.74ef3263.chunk.js": "/static/js/164.74ef3263.chunk.js",
    "static/js/165.adce0839.chunk.js": "/static/js/165.adce0839.chunk.js",
    "static/js/166.d0b418b3.chunk.js": "/static/js/166.d0b418b3.chunk.js",
    "static/js/167.764e8022.chunk.js": "/static/js/167.764e8022.chunk.js",
    "static/js/168.d09340f4.chunk.js": "/static/js/168.d09340f4.chunk.js",
    "static/js/169.fb0852d1.chunk.js": "/static/js/169.fb0852d1.chunk.js",
    "static/js/170.c1cd97ff.chunk.js": "/static/js/170.c1cd97ff.chunk.js",
    "static/js/171.2704d906.chunk.js": "/static/js/171.2704d906.chunk.js",
    "static/js/172.fb043a9a.chunk.js": "/static/js/172.fb043a9a.chunk.js",
    "static/js/173.686f05c2.chunk.js": "/static/js/173.686f05c2.chunk.js",
    "static/js/174.9b58601f.chunk.js": "/static/js/174.9b58601f.chunk.js",
    "static/js/175.e3000ee3.chunk.js": "/static/js/175.e3000ee3.chunk.js",
    "static/js/176.85389e6c.chunk.js": "/static/js/176.85389e6c.chunk.js",
    "static/js/177.05dfb45f.chunk.js": "/static/js/177.05dfb45f.chunk.js",
    "static/js/178.ba967af1.chunk.js": "/static/js/178.ba967af1.chunk.js",
    "static/js/179.f2b081a0.chunk.js": "/static/js/179.f2b081a0.chunk.js",
    "static/js/180.cfb7c591.chunk.js": "/static/js/180.cfb7c591.chunk.js",
    "static/js/181.5c85547d.chunk.js": "/static/js/181.5c85547d.chunk.js",
    "static/js/182.9c73f047.chunk.js": "/static/js/182.9c73f047.chunk.js",
    "static/js/183.edd9ddd1.chunk.js": "/static/js/183.edd9ddd1.chunk.js",
    "static/js/184.81b10d71.chunk.js": "/static/js/184.81b10d71.chunk.js",
    "static/js/185.96582901.chunk.js": "/static/js/185.96582901.chunk.js",
    "static/js/186.53c857af.chunk.js": "/static/js/186.53c857af.chunk.js",
    "static/js/187.570dd112.chunk.js": "/static/js/187.570dd112.chunk.js",
    "static/js/188.3b7fd545.chunk.js": "/static/js/188.3b7fd545.chunk.js",
    "static/js/189.4ada18bb.chunk.js": "/static/js/189.4ada18bb.chunk.js",
    "static/js/190.a3c3b239.chunk.js": "/static/js/190.a3c3b239.chunk.js",
    "static/js/191.ed2329d4.chunk.js": "/static/js/191.ed2329d4.chunk.js",
    "static/js/192.ca1aa54b.chunk.js": "/static/js/192.ca1aa54b.chunk.js",
    "static/js/193.16cffbaa.chunk.js": "/static/js/193.16cffbaa.chunk.js",
    "static/js/194.1e676817.chunk.js": "/static/js/194.1e676817.chunk.js",
    "static/js/195.c222d078.chunk.js": "/static/js/195.c222d078.chunk.js",
    "static/js/196.acc24689.chunk.js": "/static/js/196.acc24689.chunk.js",
    "static/js/197.b0a1a0b7.chunk.js": "/static/js/197.b0a1a0b7.chunk.js",
    "static/js/198.71bfed4a.chunk.js": "/static/js/198.71bfed4a.chunk.js",
    "static/js/199.be1a8dc6.chunk.js": "/static/js/199.be1a8dc6.chunk.js",
    "static/js/200.3ce82500.chunk.js": "/static/js/200.3ce82500.chunk.js",
    "static/js/201.fce307b7.chunk.js": "/static/js/201.fce307b7.chunk.js",
    "static/js/202.bca9cbf9.chunk.js": "/static/js/202.bca9cbf9.chunk.js",
    "static/js/203.805e8d35.chunk.js": "/static/js/203.805e8d35.chunk.js",
    "static/js/204.3ce1b1a5.chunk.js": "/static/js/204.3ce1b1a5.chunk.js",
    "static/js/205.ed04114a.chunk.js": "/static/js/205.ed04114a.chunk.js",
    "static/js/206.d4130ced.chunk.js": "/static/js/206.d4130ced.chunk.js",
    "static/js/207.48c52cde.chunk.js": "/static/js/207.48c52cde.chunk.js",
    "static/js/208.a6116258.chunk.js": "/static/js/208.a6116258.chunk.js",
    "static/js/209.171c0230.chunk.js": "/static/js/209.171c0230.chunk.js",
    "static/js/210.f84525fb.chunk.js": "/static/js/210.f84525fb.chunk.js",
    "static/js/211.1dc401bb.chunk.js": "/static/js/211.1dc401bb.chunk.js",
    "static/js/212.cb323dd2.chunk.js": "/static/js/212.cb323dd2.chunk.js",
    "static/js/213.8f5f7461.chunk.js": "/static/js/213.8f5f7461.chunk.js",
    "static/js/214.45e006ce.chunk.js": "/static/js/214.45e006ce.chunk.js",
    "static/js/215.a1bd1d32.chunk.js": "/static/js/215.a1bd1d32.chunk.js",
    "static/js/216.dd49b2f5.chunk.js": "/static/js/216.dd49b2f5.chunk.js",
    "static/js/217.a5ae94a1.chunk.js": "/static/js/217.a5ae94a1.chunk.js",
    "static/js/218.77f73285.chunk.js": "/static/js/218.77f73285.chunk.js",
    "static/js/219.b1b4e45a.chunk.js": "/static/js/219.b1b4e45a.chunk.js",
    "static/js/220.8a935cce.chunk.js": "/static/js/220.8a935cce.chunk.js",
    "static/js/221.905ec7d8.chunk.js": "/static/js/221.905ec7d8.chunk.js",
    "static/js/222.02ea3400.chunk.js": "/static/js/222.02ea3400.chunk.js",
    "static/js/223.49a34f49.chunk.js": "/static/js/223.49a34f49.chunk.js",
    "static/js/224.39948771.chunk.js": "/static/js/224.39948771.chunk.js",
    "static/js/225.a297545a.chunk.js": "/static/js/225.a297545a.chunk.js",
    "static/js/226.22203e8f.chunk.js": "/static/js/226.22203e8f.chunk.js",
    "static/js/227.289355ed.chunk.js": "/static/js/227.289355ed.chunk.js",
    "static/js/228.2ebd0aa6.chunk.js": "/static/js/228.2ebd0aa6.chunk.js",
    "static/js/229.29a2fe9b.chunk.js": "/static/js/229.29a2fe9b.chunk.js",
    "static/js/230.9a9670a4.chunk.js": "/static/js/230.9a9670a4.chunk.js",
    "static/js/231.e23fcf57.chunk.js": "/static/js/231.e23fcf57.chunk.js",
    "static/js/232.be84935b.chunk.js": "/static/js/232.be84935b.chunk.js",
    "static/js/233.81b57ea4.chunk.js": "/static/js/233.81b57ea4.chunk.js",
    "static/js/234.3885c33a.chunk.js": "/static/js/234.3885c33a.chunk.js",
    "static/js/235.529443a4.chunk.js": "/static/js/235.529443a4.chunk.js",
    "static/js/236.9070881e.chunk.js": "/static/js/236.9070881e.chunk.js",
    "static/js/237.4990006f.chunk.js": "/static/js/237.4990006f.chunk.js",
    "static/js/238.3dcb2eae.chunk.js": "/static/js/238.3dcb2eae.chunk.js",
    "static/js/239.4d43f4bb.chunk.js": "/static/js/239.4d43f4bb.chunk.js",
    "static/js/240.58634a88.chunk.js": "/static/js/240.58634a88.chunk.js",
    "static/js/241.c999c72a.chunk.js": "/static/js/241.c999c72a.chunk.js",
    "static/js/242.55a8197a.chunk.js": "/static/js/242.55a8197a.chunk.js",
    "static/js/243.699c0594.chunk.js": "/static/js/243.699c0594.chunk.js",
    "static/js/244.26a9f13b.chunk.js": "/static/js/244.26a9f13b.chunk.js",
    "static/js/245.84087151.chunk.js": "/static/js/245.84087151.chunk.js",
    "static/js/246.f0417c0c.chunk.js": "/static/js/246.f0417c0c.chunk.js",
    "static/js/247.36bddf71.chunk.js": "/static/js/247.36bddf71.chunk.js",
    "static/js/248.06ca5e58.chunk.js": "/static/js/248.06ca5e58.chunk.js",
    "static/js/249.9cd9a132.chunk.js": "/static/js/249.9cd9a132.chunk.js",
    "static/js/250.31d4f84f.chunk.js": "/static/js/250.31d4f84f.chunk.js",
    "static/js/251.c5c34f22.chunk.js": "/static/js/251.c5c34f22.chunk.js",
    "static/js/252.427f4363.chunk.js": "/static/js/252.427f4363.chunk.js",
    "static/js/253.3f7b7bcf.chunk.js": "/static/js/253.3f7b7bcf.chunk.js",
    "static/js/254.46f5d22c.chunk.js": "/static/js/254.46f5d22c.chunk.js",
    "static/js/255.faaff45f.chunk.js": "/static/js/255.faaff45f.chunk.js",
    "static/js/256.e513f9ff.chunk.js": "/static/js/256.e513f9ff.chunk.js",
    "static/js/257.676b6155.chunk.js": "/static/js/257.676b6155.chunk.js",
    "static/js/258.c564f97c.chunk.js": "/static/js/258.c564f97c.chunk.js",
    "static/js/259.516cbb3c.chunk.js": "/static/js/259.516cbb3c.chunk.js",
    "static/js/260.9190f714.chunk.js": "/static/js/260.9190f714.chunk.js",
    "static/js/261.c85de04e.chunk.js": "/static/js/261.c85de04e.chunk.js",
    "static/js/262.64353281.chunk.js": "/static/js/262.64353281.chunk.js",
    "static/js/263.0f847ac0.chunk.js": "/static/js/263.0f847ac0.chunk.js",
    "static/js/264.5464b0aa.chunk.js": "/static/js/264.5464b0aa.chunk.js",
    "static/js/265.ba270942.chunk.js": "/static/js/265.ba270942.chunk.js",
    "static/js/266.7a92ae9e.chunk.js": "/static/js/266.7a92ae9e.chunk.js",
    "static/js/267.431cbfcb.chunk.js": "/static/js/267.431cbfcb.chunk.js",
    "static/js/268.24fa6615.chunk.js": "/static/js/268.24fa6615.chunk.js",
    "static/js/269.9a70cd6b.chunk.js": "/static/js/269.9a70cd6b.chunk.js",
    "static/js/270.6ac91bfa.chunk.js": "/static/js/270.6ac91bfa.chunk.js",
    "static/js/271.c1c0d20d.chunk.js": "/static/js/271.c1c0d20d.chunk.js",
    "static/js/272.1a0a898d.chunk.js": "/static/js/272.1a0a898d.chunk.js",
    "static/js/273.f14f637c.chunk.js": "/static/js/273.f14f637c.chunk.js",
    "static/js/274.b539445d.chunk.js": "/static/js/274.b539445d.chunk.js",
    "static/js/275.8a82ccba.chunk.js": "/static/js/275.8a82ccba.chunk.js",
    "static/js/276.8fd5f44c.chunk.js": "/static/js/276.8fd5f44c.chunk.js",
    "static/js/277.17ed65b5.chunk.js": "/static/js/277.17ed65b5.chunk.js",
    "static/js/278.3a0dffc3.chunk.js": "/static/js/278.3a0dffc3.chunk.js",
    "static/js/279.b79b98c0.chunk.js": "/static/js/279.b79b98c0.chunk.js",
    "static/js/280.9c7fcd61.chunk.js": "/static/js/280.9c7fcd61.chunk.js",
    "static/js/281.caae12c3.chunk.js": "/static/js/281.caae12c3.chunk.js",
    "static/js/282.ff4ff59f.chunk.js": "/static/js/282.ff4ff59f.chunk.js",
    "static/js/283.d1eeeed7.chunk.js": "/static/js/283.d1eeeed7.chunk.js",
    "static/js/284.520a0361.chunk.js": "/static/js/284.520a0361.chunk.js",
    "static/js/285.6e30b804.chunk.js": "/static/js/285.6e30b804.chunk.js",
    "static/js/286.97efc287.chunk.js": "/static/js/286.97efc287.chunk.js",
    "static/js/287.397a33ae.chunk.js": "/static/js/287.397a33ae.chunk.js",
    "static/js/288.77d49574.chunk.js": "/static/js/288.77d49574.chunk.js",
    "static/js/289.29d8d187.chunk.js": "/static/js/289.29d8d187.chunk.js",
    "static/js/290.50dca867.chunk.js": "/static/js/290.50dca867.chunk.js",
    "static/js/291.142782ac.chunk.js": "/static/js/291.142782ac.chunk.js",
    "static/js/292.46c1c29b.chunk.js": "/static/js/292.46c1c29b.chunk.js",
    "static/js/293.32ef12aa.chunk.js": "/static/js/293.32ef12aa.chunk.js",
    "static/js/294.ef9dda79.chunk.js": "/static/js/294.ef9dda79.chunk.js",
    "static/js/295.b6953d42.chunk.js": "/static/js/295.b6953d42.chunk.js",
    "static/js/296.0c053e41.chunk.js": "/static/js/296.0c053e41.chunk.js",
    "static/js/297.19070b53.chunk.js": "/static/js/297.19070b53.chunk.js",
    "static/js/298.458c349b.chunk.js": "/static/js/298.458c349b.chunk.js",
    "static/js/299.c5f90407.chunk.js": "/static/js/299.c5f90407.chunk.js",
    "static/js/300.02efd39e.chunk.js": "/static/js/300.02efd39e.chunk.js",
    "static/js/301.d1470f78.chunk.js": "/static/js/301.d1470f78.chunk.js",
    "static/js/302.76c29bf5.chunk.js": "/static/js/302.76c29bf5.chunk.js",
    "static/js/303.0e4332e0.chunk.js": "/static/js/303.0e4332e0.chunk.js",
    "static/js/304.0ea41ab8.chunk.js": "/static/js/304.0ea41ab8.chunk.js",
    "static/js/305.0e3ee369.chunk.js": "/static/js/305.0e3ee369.chunk.js",
    "static/js/306.b597d507.chunk.js": "/static/js/306.b597d507.chunk.js",
    "static/js/307.640d28db.chunk.js": "/static/js/307.640d28db.chunk.js",
    "static/js/308.a8887b0f.chunk.js": "/static/js/308.a8887b0f.chunk.js",
    "static/js/309.df0e7ea4.chunk.js": "/static/js/309.df0e7ea4.chunk.js",
    "static/js/310.e3a78f8b.chunk.js": "/static/js/310.e3a78f8b.chunk.js",
    "static/js/311.0d012b6c.chunk.js": "/static/js/311.0d012b6c.chunk.js",
    "static/js/312.20093723.chunk.js": "/static/js/312.20093723.chunk.js",
    "static/js/313.c1a513fd.chunk.js": "/static/js/313.c1a513fd.chunk.js",
    "static/js/314.64c05e2c.chunk.js": "/static/js/314.64c05e2c.chunk.js",
    "static/js/315.71c84fcf.chunk.js": "/static/js/315.71c84fcf.chunk.js",
    "static/js/316.98bf13ad.chunk.js": "/static/js/316.98bf13ad.chunk.js",
    "static/js/317.d1ef2c3f.chunk.js": "/static/js/317.d1ef2c3f.chunk.js",
    "static/js/318.2c063537.chunk.js": "/static/js/318.2c063537.chunk.js",
    "static/js/319.41908e7e.chunk.js": "/static/js/319.41908e7e.chunk.js",
    "static/js/320.18a36c5c.chunk.js": "/static/js/320.18a36c5c.chunk.js",
    "static/js/321.f8f68deb.chunk.js": "/static/js/321.f8f68deb.chunk.js",
    "static/js/322.d8d97298.chunk.js": "/static/js/322.d8d97298.chunk.js",
    "static/js/323.b48d1927.chunk.js": "/static/js/323.b48d1927.chunk.js",
    "static/js/324.54f6fc10.chunk.js": "/static/js/324.54f6fc10.chunk.js",
    "static/js/325.3e941b14.chunk.js": "/static/js/325.3e941b14.chunk.js",
    "static/js/326.9cb90028.chunk.js": "/static/js/326.9cb90028.chunk.js",
    "static/js/327.54a0be8d.chunk.js": "/static/js/327.54a0be8d.chunk.js",
    "static/js/328.0f30cc0f.chunk.js": "/static/js/328.0f30cc0f.chunk.js",
    "static/js/329.00813e92.chunk.js": "/static/js/329.00813e92.chunk.js",
    "static/js/330.b46b3478.chunk.js": "/static/js/330.b46b3478.chunk.js",
    "static/js/331.97f007d4.chunk.js": "/static/js/331.97f007d4.chunk.js",
    "static/js/332.332cda76.chunk.js": "/static/js/332.332cda76.chunk.js",
    "static/js/333.ff83b4d7.chunk.js": "/static/js/333.ff83b4d7.chunk.js",
    "static/js/334.ad432610.chunk.js": "/static/js/334.ad432610.chunk.js",
    "static/js/335.adaa62fe.chunk.js": "/static/js/335.adaa62fe.chunk.js",
    "static/js/336.c195644c.chunk.js": "/static/js/336.c195644c.chunk.js",
    "static/js/337.7f66acc9.chunk.js": "/static/js/337.7f66acc9.chunk.js",
    "static/js/338.517db894.chunk.js": "/static/js/338.517db894.chunk.js",
    "static/js/339.3f9ed58c.chunk.js": "/static/js/339.3f9ed58c.chunk.js",
    "static/js/340.29b58ead.chunk.js": "/static/js/340.29b58ead.chunk.js",
    "static/js/341.7cf38c1b.chunk.js": "/static/js/341.7cf38c1b.chunk.js",
    "static/js/342.c29704cc.chunk.js": "/static/js/342.c29704cc.chunk.js",
    "static/js/343.0dfbeabc.chunk.js": "/static/js/343.0dfbeabc.chunk.js",
    "static/js/344.051946a4.chunk.js": "/static/js/344.051946a4.chunk.js",
    "static/js/345.4c5cb78d.chunk.js": "/static/js/345.4c5cb78d.chunk.js",
    "static/js/346.e67dc5d1.chunk.js": "/static/js/346.e67dc5d1.chunk.js",
    "static/js/347.26e9a381.chunk.js": "/static/js/347.26e9a381.chunk.js",
    "static/js/348.b0c25cd7.chunk.js": "/static/js/348.b0c25cd7.chunk.js",
    "static/js/349.36d55291.chunk.js": "/static/js/349.36d55291.chunk.js",
    "static/js/350.8ba33e07.chunk.js": "/static/js/350.8ba33e07.chunk.js",
    "static/js/351.530ef078.chunk.js": "/static/js/351.530ef078.chunk.js",
    "static/js/352.fd9fa590.chunk.js": "/static/js/352.fd9fa590.chunk.js",
    "static/js/353.18eaf56a.chunk.js": "/static/js/353.18eaf56a.chunk.js",
    "static/js/354.bab392d8.chunk.js": "/static/js/354.bab392d8.chunk.js",
    "static/js/355.9d6bf704.chunk.js": "/static/js/355.9d6bf704.chunk.js",
    "static/js/356.bcab2372.chunk.js": "/static/js/356.bcab2372.chunk.js",
    "static/js/357.f8d17003.chunk.js": "/static/js/357.f8d17003.chunk.js",
    "static/js/358.5bc57e4c.chunk.js": "/static/js/358.5bc57e4c.chunk.js",
    "static/js/359.22c85d17.chunk.js": "/static/js/359.22c85d17.chunk.js",
    "static/js/360.5726cd99.chunk.js": "/static/js/360.5726cd99.chunk.js",
    "static/js/361.63acdc1b.chunk.js": "/static/js/361.63acdc1b.chunk.js",
    "static/js/362.bf5b754d.chunk.js": "/static/js/362.bf5b754d.chunk.js",
    "static/js/363.f72c0a62.chunk.js": "/static/js/363.f72c0a62.chunk.js",
    "static/js/364.0c42aa77.chunk.js": "/static/js/364.0c42aa77.chunk.js",
    "static/js/365.35d1a1fe.chunk.js": "/static/js/365.35d1a1fe.chunk.js",
    "static/js/366.44bc3344.chunk.js": "/static/js/366.44bc3344.chunk.js",
    "static/js/367.f9e6e8a1.chunk.js": "/static/js/367.f9e6e8a1.chunk.js",
    "static/js/368.04f15f05.chunk.js": "/static/js/368.04f15f05.chunk.js",
    "static/js/369.d168e9fe.chunk.js": "/static/js/369.d168e9fe.chunk.js",
    "static/js/370.17e94fdc.chunk.js": "/static/js/370.17e94fdc.chunk.js",
    "static/js/371.8adca8a2.chunk.js": "/static/js/371.8adca8a2.chunk.js",
    "static/js/372.25cae7ee.chunk.js": "/static/js/372.25cae7ee.chunk.js",
    "static/js/373.a8adfe70.chunk.js": "/static/js/373.a8adfe70.chunk.js",
    "static/js/374.91faca38.chunk.js": "/static/js/374.91faca38.chunk.js",
    "static/js/375.ac227c91.chunk.js": "/static/js/375.ac227c91.chunk.js",
    "static/js/376.cf08bfcd.chunk.js": "/static/js/376.cf08bfcd.chunk.js",
    "static/js/377.8f8d0f0a.chunk.js": "/static/js/377.8f8d0f0a.chunk.js",
    "static/js/378.7c17a769.chunk.js": "/static/js/378.7c17a769.chunk.js",
    "static/js/379.f4c81c96.chunk.js": "/static/js/379.f4c81c96.chunk.js",
    "static/js/380.b38460d1.chunk.js": "/static/js/380.b38460d1.chunk.js",
    "static/js/381.2865f884.chunk.js": "/static/js/381.2865f884.chunk.js",
    "static/js/382.c2aa725d.chunk.js": "/static/js/382.c2aa725d.chunk.js",
    "static/js/383.d4429c0e.chunk.js": "/static/js/383.d4429c0e.chunk.js",
    "static/js/384.a16f5c21.chunk.js": "/static/js/384.a16f5c21.chunk.js",
    "static/js/385.a35a203f.chunk.js": "/static/js/385.a35a203f.chunk.js",
    "static/js/386.51e22f20.chunk.js": "/static/js/386.51e22f20.chunk.js",
    "static/js/387.d3c66188.chunk.js": "/static/js/387.d3c66188.chunk.js",
    "static/js/388.03e4eb0d.chunk.js": "/static/js/388.03e4eb0d.chunk.js",
    "static/js/389.58faeba2.chunk.js": "/static/js/389.58faeba2.chunk.js",
    "static/js/390.af9ad2fb.chunk.js": "/static/js/390.af9ad2fb.chunk.js",
    "static/js/391.7f9cef0d.chunk.js": "/static/js/391.7f9cef0d.chunk.js",
    "static/js/392.9e51f8df.chunk.js": "/static/js/392.9e51f8df.chunk.js",
    "static/js/393.d55f72de.chunk.js": "/static/js/393.d55f72de.chunk.js",
    "static/js/394.fff1f350.chunk.js": "/static/js/394.fff1f350.chunk.js",
    "static/js/395.995f51a9.chunk.js": "/static/js/395.995f51a9.chunk.js",
    "static/js/396.62b9955a.chunk.js": "/static/js/396.62b9955a.chunk.js",
    "static/js/397.9f8abe6b.chunk.js": "/static/js/397.9f8abe6b.chunk.js",
    "static/js/398.38a041a9.chunk.js": "/static/js/398.38a041a9.chunk.js",
    "static/js/399.f5e1b968.chunk.js": "/static/js/399.f5e1b968.chunk.js",
    "static/js/400.3ddc70dc.chunk.js": "/static/js/400.3ddc70dc.chunk.js",
    "static/js/401.a2a57bd3.chunk.js": "/static/js/401.a2a57bd3.chunk.js",
    "static/js/402.331b32da.chunk.js": "/static/js/402.331b32da.chunk.js",
    "static/js/403.138761a0.chunk.js": "/static/js/403.138761a0.chunk.js",
    "static/js/404.92f622c4.chunk.js": "/static/js/404.92f622c4.chunk.js",
    "static/js/405.b6184627.chunk.js": "/static/js/405.b6184627.chunk.js",
    "static/js/406.4b42de0c.chunk.js": "/static/js/406.4b42de0c.chunk.js",
    "static/js/407.41840a1a.chunk.js": "/static/js/407.41840a1a.chunk.js",
    "static/js/408.f2b9a5b0.chunk.js": "/static/js/408.f2b9a5b0.chunk.js",
    "static/js/409.55fcc9e7.chunk.js": "/static/js/409.55fcc9e7.chunk.js",
    "static/js/410.dfe34be8.chunk.js": "/static/js/410.dfe34be8.chunk.js",
    "static/js/411.4bac253e.chunk.js": "/static/js/411.4bac253e.chunk.js",
    "static/js/412.a45f79ba.chunk.js": "/static/js/412.a45f79ba.chunk.js",
    "static/js/413.6bb39849.chunk.js": "/static/js/413.6bb39849.chunk.js",
    "static/js/414.03784dd6.chunk.js": "/static/js/414.03784dd6.chunk.js",
    "static/js/415.1d37d81b.chunk.js": "/static/js/415.1d37d81b.chunk.js",
    "static/js/416.56518124.chunk.js": "/static/js/416.56518124.chunk.js",
    "static/js/417.4cb7762b.chunk.js": "/static/js/417.4cb7762b.chunk.js",
    "static/js/418.a7859767.chunk.js": "/static/js/418.a7859767.chunk.js",
    "static/js/419.9df8435b.chunk.js": "/static/js/419.9df8435b.chunk.js",
    "static/js/420.b3b8b26b.chunk.js": "/static/js/420.b3b8b26b.chunk.js",
    "static/js/421.05fd4508.chunk.js": "/static/js/421.05fd4508.chunk.js",
    "static/js/422.026d1a8f.chunk.js": "/static/js/422.026d1a8f.chunk.js",
    "static/js/423.f7b287fc.chunk.js": "/static/js/423.f7b287fc.chunk.js",
    "static/js/424.1e3ff26d.chunk.js": "/static/js/424.1e3ff26d.chunk.js",
    "static/js/425.a94b7c75.chunk.js": "/static/js/425.a94b7c75.chunk.js",
    "static/js/426.864835ef.chunk.js": "/static/js/426.864835ef.chunk.js",
    "static/js/427.7574402c.chunk.js": "/static/js/427.7574402c.chunk.js",
    "static/js/428.f984216d.chunk.js": "/static/js/428.f984216d.chunk.js",
    "static/js/429.606b5d99.chunk.js": "/static/js/429.606b5d99.chunk.js",
    "static/js/430.a4ef1699.chunk.js": "/static/js/430.a4ef1699.chunk.js",
    "static/js/431.02659140.chunk.js": "/static/js/431.02659140.chunk.js",
    "static/js/432.c36b170f.chunk.js": "/static/js/432.c36b170f.chunk.js",
    "static/js/433.11117792.chunk.js": "/static/js/433.11117792.chunk.js",
    "index.html": "/index.html",
    "static/js/1.19f97485.chunk.js.LICENSE.txt": "/static/js/1.19f97485.chunk.js.LICENSE.txt",
    "static/js/14.d3beec4d.chunk.js.LICENSE.txt": "/static/js/14.d3beec4d.chunk.js.LICENSE.txt",
    "static/js/41.607d4a6e.chunk.js.LICENSE.txt": "/static/js/41.607d4a6e.chunk.js.LICENSE.txt",
    "static/js/42.52ef3819.chunk.js.LICENSE.txt": "/static/js/42.52ef3819.chunk.js.LICENSE.txt",
    "static/js/45.dc8e610c.chunk.js.LICENSE.txt": "/static/js/45.dc8e610c.chunk.js.LICENSE.txt",
    "static/js/46.0b428032.chunk.js.LICENSE.txt": "/static/js/46.0b428032.chunk.js.LICENSE.txt",
    "static/js/47.cbcfd4f5.chunk.js.LICENSE.txt": "/static/js/47.cbcfd4f5.chunk.js.LICENSE.txt",
    "static/js/48.7355dda9.chunk.js.LICENSE.txt": "/static/js/48.7355dda9.chunk.js.LICENSE.txt",
    "static/js/49.527a9437.chunk.js.LICENSE.txt": "/static/js/49.527a9437.chunk.js.LICENSE.txt",
    "static/js/51.b17bc42b.chunk.js.LICENSE.txt": "/static/js/51.b17bc42b.chunk.js.LICENSE.txt",
    "static/js/52.d8d69b9a.chunk.js.LICENSE.txt": "/static/js/52.d8d69b9a.chunk.js.LICENSE.txt",
    "static/js/53.d8071e6c.chunk.js.LICENSE.txt": "/static/js/53.d8071e6c.chunk.js.LICENSE.txt",
    "static/js/54.f059ec90.chunk.js.LICENSE.txt": "/static/js/54.f059ec90.chunk.js.LICENSE.txt",
    "static/js/55.a6857ad8.chunk.js.LICENSE.txt": "/static/js/55.a6857ad8.chunk.js.LICENSE.txt",
    "static/js/56.d6c4f932.chunk.js.LICENSE.txt": "/static/js/56.d6c4f932.chunk.js.LICENSE.txt",
    "static/js/57.72214dd2.chunk.js.LICENSE.txt": "/static/js/57.72214dd2.chunk.js.LICENSE.txt",
    "static/js/58.9ce599af.chunk.js.LICENSE.txt": "/static/js/58.9ce599af.chunk.js.LICENSE.txt",
    "static/js/6.a9737c65.chunk.js.LICENSE.txt": "/static/js/6.a9737c65.chunk.js.LICENSE.txt",
    "static/js/60.c1e59c9d.chunk.js.LICENSE.txt": "/static/js/60.c1e59c9d.chunk.js.LICENSE.txt",
    "static/js/66.2f979a02.chunk.js.LICENSE.txt": "/static/js/66.2f979a02.chunk.js.LICENSE.txt",
    "static/js/69.fd65c4cd.chunk.js.LICENSE.txt": "/static/js/69.fd65c4cd.chunk.js.LICENSE.txt",
    "static/js/70.aea42ffb.chunk.js.LICENSE.txt": "/static/js/70.aea42ffb.chunk.js.LICENSE.txt",
    "static/js/71.7643272c.chunk.js.LICENSE.txt": "/static/js/71.7643272c.chunk.js.LICENSE.txt",
    "static/js/72.66baf1b2.chunk.js.LICENSE.txt": "/static/js/72.66baf1b2.chunk.js.LICENSE.txt",
    "static/js/73.31f959d9.chunk.js.LICENSE.txt": "/static/js/73.31f959d9.chunk.js.LICENSE.txt",
    "static/js/75.c04f1764.chunk.js.LICENSE.txt": "/static/js/75.c04f1764.chunk.js.LICENSE.txt",
    "static/js/76.9cb2c41a.chunk.js.LICENSE.txt": "/static/js/76.9cb2c41a.chunk.js.LICENSE.txt",
    "static/media/Announcement.dfab6f86.svg": "/static/media/Announcement.dfab6f86.svg",
    "static/media/Appraisal.b8af04ca.svg": "/static/media/Appraisal.b8af04ca.svg",
    "static/media/Attachment.5342b01a.svg": "/static/media/Attachment.5342b01a.svg",
    "static/media/Attendance.544085f8.svg": "/static/media/Attendance.544085f8.svg",
    "static/media/Calendar.0496ad01.svg": "/static/media/Calendar.0496ad01.svg",
    "static/media/Centre.cd34c9d2.svg": "/static/media/Centre.cd34c9d2.svg",
    "static/media/CentreLeader.dc387188.svg": "/static/media/CentreLeader.dc387188.svg",
    "static/media/CentreLog.04d7bd2c.svg": "/static/media/CentreLog.04d7bd2c.svg",
    "static/media/Chat.66adb1ef.svg": "/static/media/Chat.66adb1ef.svg",
    "static/media/Class.8e720951.svg": "/static/media/Class.8e720951.svg",
    "static/media/Dashboard.496d0e1c.svg": "/static/media/Dashboard.496d0e1c.svg",
    "static/media/Event.8fd6d842.svg": "/static/media/Event.8fd6d842.svg",
    "static/media/Image.2d22fdab.svg": "/static/media/Image.2d22fdab.svg",
    "static/media/Kids.48a70405.svg": "/static/media/Kids.48a70405.svg",
    "static/media/Parent.dbed6812.svg": "/static/media/Parent.dbed6812.svg",
    "static/media/PhotoAlbum.ea13f578.svg": "/static/media/PhotoAlbum.ea13f578.svg",
    "static/media/Settings.05f8cc04.svg": "/static/media/Settings.05f8cc04.svg",
    "static/media/Staff.61f1dc9d.svg": "/static/media/Staff.61f1dc9d.svg",
    "static/media/Survey.7bd88b26.svg": "/static/media/Survey.7bd88b26.svg",
    "static/media/Teacher.034c07a7.svg": "/static/media/Teacher.034c07a7.svg",
    "static/media/Visitor.a93df485.svg": "/static/media/Visitor.a93df485.svg",
    "static/media/WeeklyPlan.a460bc0b.svg": "/static/media/WeeklyPlan.a460bc0b.svg",
    "static/media/profile.e01ab67d.svg": "/static/media/profile.e01ab67d.svg",
    "static/media/snippets.c0ec970e.svg": "/static/media/snippets.c0ec970e.svg"
  },
  "entrypoints": [
    "static/js/runtime-main.16f4227a.js",
    "static/js/41.607d4a6e.chunk.js",
    "static/css/main.d48d87b7.chunk.css",
    "static/js/main.3a1f18e8.chunk.js"
  ]
}