<?xml version="1.0" encoding="UTF-8" ?>
<!DOCTYPE svg PUBLIC "-//W3C//DTD SVG 1.1//EN" "http://www.w3.org/Graphics/SVG/1.1/DTD/svg11.dtd">
<svg width="1em" height="1em" viewBox="0 0 1200 1063" version="1.1" xmlns="http://www.w3.org/2000/svg">
<g id="#000000ff">
<path fill="currentColor" opacity="1.00" d=" M 141.37 66.48 C 176.92 66.14 212.48 66.43 248.03 66.33 C 512.03 66.33 776.02 66.33 1040.02 66.33 C 1055.41 66.56 1071.15 65.13 1086.12 69.62 C 1116.82 77.86 1142.08 103.30 1150.18 134.03 C 1153.48 145.38 1153.51 157.28 1153.36 168.99 C 1153.36 393.32 1153.36 617.65 1153.36 841.98 C 1153.31 849.72 1153.63 857.49 1152.57 865.18 C 1150.25 883.26 1142.26 900.52 1130.12 914.11 C 1112.25 934.46 1085.06 946.01 1058.00 944.87 C 761.00 944.86 464.00 944.87 167.01 944.87 C 153.75 944.62 140.29 945.84 127.26 942.76 C 105.29 938.08 85.37 924.83 72.30 906.60 C 61.08 891.13 54.97 872.07 55.09 852.97 C 55.08 621.30 55.08 389.64 55.09 157.97 C 55.00 137.90 61.84 117.91 74.17 102.08 C 90.08 81.30 115.19 67.81 141.37 66.48 M 142.23 140.11 C 135.14 142.01 129.40 148.35 128.47 155.67 C 128.19 158.45 128.34 161.25 128.31 164.04 C 128.32 393.70 128.31 623.36 128.32 853.01 C 128.07 862.95 137.10 871.89 147.01 871.65 C 451.69 871.68 756.37 871.66 1061.05 871.66 C 1071.11 872.08 1080.41 863.08 1080.15 852.97 C 1080.17 623.32 1080.15 393.66 1080.16 164.01 C 1080.12 159.50 1080.60 154.73 1078.51 150.56 C 1075.46 143.89 1068.34 139.18 1060.93 139.52 C 758.29 139.54 455.65 139.53 153.01 139.53 C 149.42 139.61 145.75 139.21 142.23 140.11 Z" />
<path fill="currentColor" opacity="1.00" d=" M 296.51 213.76 C 320.74 210.42 346.05 215.41 367.08 227.94 C 389.59 241.17 407.09 262.68 415.38 287.45 C 423.70 311.93 422.95 339.35 413.30 363.34 C 401.34 393.59 375.25 417.82 344.15 427.37 C 321.79 434.38 297.17 433.99 275.07 426.18 C 248.66 417.06 226.16 397.34 213.50 372.44 C 201.33 348.86 198.32 320.79 204.98 295.12 C 211.57 269.25 228.08 246.11 250.29 231.32 C 264.09 222.03 280.03 215.99 296.51 213.76 Z" />
<path fill="currentColor" opacity="1.00" d=" M 476.08 597.08 C 573.72 499.50 671.34 401.90 768.95 304.30 C 848.30 383.57 927.60 462.90 1006.91 542.21 C 1006.92 627.63 1006.91 713.04 1006.91 798.46 C 738.45 798.47 469.98 798.47 201.51 798.46 C 201.47 761.88 201.55 725.30 201.47 688.73 C 262.44 627.63 323.55 566.67 384.58 505.62 C 415.10 536.09 445.56 566.61 476.08 597.08 Z" />
</g>
</svg>
