<?xml version="1.0" encoding="UTF-8" ?>
<!DOCTYPE svg PUBLIC "-//W3C//DTD SVG 1.1//EN" "http://www.w3.org/Graphics/SVG/1.1/DTD/svg11.dtd">
<svg width="1em" height="1em" viewBox="0 0 40 40" version="1.1" xmlns="http://www.w3.org/2000/svg">
<g id="#ebfbf3ff">
<path fill="#ebfbf3" opacity="1.00" d=" M 0.00 0.00 L 40.00 0.00 L 40.00 40.00 L 35.84 40.00 C 35.41 34.06 31.70 28.68 26.11 26.51 C 28.89 23.00 29.45 17.36 25.74 14.27 C 21.55 9.97 13.25 12.15 11.95 18.09 C 10.78 21.10 12.45 23.97 13.87 26.54 C 8.59 28.70 4.03 34.09 4.66 40.00 L 0.00 40.00 L 0.00 0.00 Z" />
</g>
<g id="#479e7dff">
<path fill="#479e7d" opacity="1.00" d=" M 11.95 18.09 C 13.25 12.15 21.55 9.97 25.74 14.27 C 29.45 17.36 28.89 23.00 26.11 26.51 L 25.74 26.35 C 22.01 25.14 18.01 25.08 14.29 26.37 L 13.87 26.54 C 12.45 23.97 10.78 21.10 11.95 18.09 Z" />
</g>
<g id="#315c53ff">
<path fill="#315c53" opacity="1.00" d=" M 13.87 26.54 L 14.29 26.37 C 17.36 29.54 22.70 29.58 25.74 26.35 L 26.11 26.51 C 31.70 28.68 35.41 34.06 35.84 40.00 L 4.66 40.00 C 4.03 34.09 8.59 28.70 13.87 26.54 Z" />
</g>
<g id="#0f3a2bff">
<path fill="#0f3a2b" opacity="1.00" d=" M 14.29 26.37 C 18.01 25.08 22.01 25.14 25.74 26.35 C 22.70 29.58 17.36 29.54 14.29 26.37 Z" />
</g>
</svg>
