<svg width="1em" height="1em" viewBox="0 0 18 18" fill="none" xmlns="http://www.w3.org/2000/svg">
<path d="M16.3125 16.3207C16.3125 16.6191 16.194 16.9053 15.983 17.1162C15.772 17.3272 15.4859 17.4457 15.1875 17.4457H2.8125C2.51413 17.4457 2.22798 17.3272 2.017 17.1162C1.80603 16.9053 1.6875 16.6191 1.6875 16.3207V1.69574C1.6875 1.39737 1.80603 1.11122 2.017 0.900245C2.22798 0.689266 2.51413 0.57074 2.8125 0.57074H10.7842C11.0824 0.570803 11.3684 0.689226 11.5793 0.89999L15.9833 5.30399C16.194 5.51489 16.3124 5.80083 16.3125 6.09899V16.3207Z" stroke="currentColor" stroke-linecap="round" stroke-linejoin="round"/>
<path d="M16.3125 6.19574H11.8125C11.5141 6.19574 11.228 6.07721 11.017 5.86623C10.806 5.65526 10.6875 5.36911 10.6875 5.07074V0.57074" stroke="#595959" stroke-linecap="round" stroke-linejoin="round"/>
<path d="M7.25175 7.21423L5.65275 9.34573C5.60438 9.41015 5.54273 9.46342 5.47198 9.50195C5.40124 9.54047 5.32304 9.56336 5.24269 9.56904C5.16233 9.57473 5.08169 9.5631 5.00622 9.53492C4.93075 9.50675 4.86222 9.46269 4.80525 9.40573L3.9375 8.53873" stroke="currentColor" opacity="0.4" stroke-linecap="round" stroke-linejoin="round"/>
<path d="M7.25175 12.2767L5.65275 14.4082C5.60438 14.4726 5.54273 14.5259 5.47198 14.5644C5.40124 14.603 5.32304 14.6259 5.24269 14.6315C5.16233 14.6372 5.08169 14.6256 5.00622 14.5974C4.93075 14.5692 4.86222 14.5252 4.80525 14.4682L3.9375 13.6005" stroke="currentColor" opacity="0.4" stroke-linecap="round" stroke-linejoin="round"/>
<path d="M9.5625 9.57074H12.9375" stroke="#BFBFBF" stroke-linecap="round" stroke-linejoin="round"/>
<path d="M9.5625 14.0707H12.9375" stroke="#BFBFBF" stroke-linecap="round" stroke-linejoin="round"/>
</svg>
