<svg width="91" height="91" viewBox="0 0 91 91" fill="none" xmlns="http://www.w3.org/2000/svg">
<rect width="91" height="91" fill="white"/>
<path d="M44.667 54.8886C47.252 54.8856 49.7303 53.8311 51.5581 51.9564C53.386 50.0817 54.4141 47.5398 54.417 44.8886V29.333C54.417 26.6808 53.3898 24.1373 51.5613 22.2619C49.7328 20.3866 47.2529 19.333 44.667 19.333C42.0811 19.333 39.6012 20.3866 37.7727 22.2619C35.9442 24.1373 34.917 26.6808 34.917 29.333V44.8886C34.9199 47.5398 35.948 50.0817 37.7759 51.9564C39.6037 53.8311 42.082 54.8856 44.667 54.8886Z" fill="#B4B4B4"/>
<path d="M59.8335 37.1108C59.2589 37.1108 58.7078 37.345 58.3014 37.7617C57.8951 38.1785 57.6668 38.7437 57.6668 39.3331V44.8886C57.6668 48.4248 56.2972 51.8162 53.8592 54.3167C51.4212 56.8172 48.1146 58.222 44.6668 58.222C41.219 58.222 37.9124 56.8172 35.4744 54.3167C33.0365 51.8162 31.6668 48.4248 31.6668 44.8886V39.3331C31.6668 38.7437 31.4386 38.1785 31.0322 37.7617C30.6259 37.345 30.0748 37.1108 29.5002 37.1108C28.9255 37.1108 28.3744 37.345 27.9681 37.7617C27.5618 38.1785 27.3335 38.7437 27.3335 39.3331V44.8886C27.3391 49.1353 28.8243 53.2402 31.5211 56.4626C34.218 59.685 37.9489 61.8127 42.0408 62.462C42.1687 62.4821 42.2853 62.5485 42.3695 62.6492C42.4538 62.7499 42.5001 62.8782 42.5002 63.0108V70.4442C42.5002 71.0335 42.7284 71.5988 43.1348 72.0155C43.5411 72.4323 44.0922 72.6664 44.6668 72.6664C45.2415 72.6664 45.7926 72.4323 46.1989 72.0155C46.6052 71.5988 46.8335 71.0335 46.8335 70.4442V63.0108C46.8335 62.8782 46.8799 62.7499 46.9641 62.6492C47.0484 62.5485 47.165 62.4821 47.2928 62.462C51.3847 61.8127 55.1157 59.685 57.8125 56.4626C60.5094 53.2402 61.9946 49.1353 62.0002 44.8886V39.3331C62.0002 38.7437 61.7719 38.1785 61.3656 37.7617C60.9592 37.345 60.4081 37.1108 59.8335 37.1108Z" fill="#777777"/>
</svg>
